[
   {
        "pk": 0,
        "model": "csmrequests.longtext",
        "fields": {
            "long_text": " "
        }
   },
    {
        "pk": 966175,
        "model": "csmrequests.organization",
        "fields": {
            "org_name": "GB Organization"
        }
    },
    {
        "pk": 45200512,
        "model": "csmrequests.csmrequests",
        "fields": {
            "csm_due_dt_tm": "2011-07-20T09:45:09",
            "phone": 3673039,
            "updt_applctx": 47168305,
            "csm_compl_dt_tm": null,
            "updt": 2805346,
            "problem_req_comment": 0,
            "updt_cnt": 6,
            "updt_task": 1030055,
            "csm_ord_dt_tm": "2011-07-20T09:43:09",
            "csm_cat": 44480365,
            "csm_req_com": 0,
            "organization": 966175,
            "updt_dt_tm": "2013-02-19T07:38:04",
            "status_cd_id": 1885,
            "csm_sub_cat": 44480366
        }
    },
    {
        "pk": 46092687,
        "model": "csmrequests.csmrequests",
        "fields": {
            "csm_due_dt_tm": "2011-09-15T19:11:24",
            "phone": 3673039,
            "updt_applctx": 39468291,
            "csm_compl_dt_tm": null,
            "updt": 3521883,
            "problem_req_comment": 0,
            "updt_cnt": 0,
            "updt_task": 1037508,
            "csm_ord_dt_tm": "2011-09-15T11:11:24",
            "csm_cat": 43802371,
            "csm_req_com": 0,
            "organization": 966175,
            "updt_dt_tm": "2011-09-15T11:11:24",
            "status_cd_id": 1886,
            "csm_sub_cat": 43802372
        }
    }
]