[
    {
        "pk": 1408118,
        "model": "csmrequests.prsnlorgreltn",
        "fields": {
            "person": 3531931,
            "active_ind": 1,
            "organization": 966175
        }
    },
    {
        "pk": 1103305,
        "model": "csmrequests.prsnlorgreltn",
        "fields": {
            "person": 3017327,
            "active_ind": 1,
            "organization": 966175
        }
    },
    {
        "pk": 1095254,
        "model": "csmrequests.prsnlorgreltn",
        "fields": {
            "person": 3054417,
            "active_ind": 1,
            "organization": 966175
        }
    },
    {
        "pk": 1095501,
        "model": "csmrequests.prsnlorgreltn",
        "fields": {
            "person": 3123924,
            "active_ind": 1,
            "organization": 966175
        }
    },
    {
        "pk": 1107300,
        "model": "csmrequests.prsnlorgreltn",
        "fields": {
            "person": 2886998,
            "active_ind": 1,
            "organization": 966175
        }
    },
    {
        "pk": 3102000022,
        "model": "csmrequests.personalias",
        "fields": {
            "person": 15269925,
            "active_ind": 1,
            "alias": "201674",
            "person_alias_type_cd": 2889241
        }
    },
    {
        "pk": 3102000017,
        "model": "csmrequests.personalias",
        "fields": {
            "person": 15269925,
            "active_ind": 1,
            "alias": "201674",
            "person_alias_type_cd": 10
        }
    },
    {
        "pk": 7714969,
        "model": "csmrequests.personalias",
        "fields": {
            "person": 3363970,
            "active_ind": 1,
            "alias": "1",
            "person_alias_type_cd": 10
        }
    },
    {
        "pk": 15271928,
        "model": "csmrequests.person",
        "fields": {
            "birth_dt_tm": "1993-04-03",
            "sex_cd": 363,
            "name_last_key": "KORADDI",
            "name_full_formatted": "koraddi, Test",
            "name_first_key": "TEST"
        }
    },
    {
        "pk": 3363970,
        "model": "csmrequests.person",
        "fields": {
            "birth_dt_tm": null,
            "sex_cd": 0,
            "name_last_key": "GB126337",
            "name_full_formatted": "GB126337, 1",
            "name_first_key": "1"
        }
    },
    {
        "pk": 15269925,
        "model": "csmrequests.person",
        "fields": {
            "birth_dt_tm": "1988-02-04",
            "sex_cd": 363,
            "name_last_key": "KORADDI",
            "name_full_formatted": "Koraddi, Medicaltest",
            "name_first_key": "MEDICALTEST"
        }
    },
    {
        "pk": 2805346,
        "model": "csmrequests.prsnl",
        "fields": {
            "name_full_formatted": "Haven, Scott",
            "active_ind": 1
        }
    },
    {
        "pk": 2808080,
        "model": "csmrequests.prsnl",
        "fields": {
            "name_full_formatted": "Boege , Greg",
            "active_ind": 1
        }
    },
    {
        "pk": 3521883,
        "model": "csmrequests.prsnl",
        "fields": {
            "name_full_formatted": "Vankadaru, Kiran",
            "active_ind": 1
        }
    },
    {
        "pk": 3521883,
        "model": "csmrequests.prsnl",
        "fields": {
            "name_full_formatted": "Vankadaru, Kiran",
            "active_ind": 1
        }
    },
    {
        "pk": 13703925,
        "model": "csmrequests.prsnl",
        "fields": {
            "name_full_formatted": "Nagamani,Suresh",
            "active_ind": 1
        }
    },
    {
        "pk": 2886998,
        "model": "csmrequests.prsnl",
        "fields": {
            "name_full_formatted": "Premakumar ,Pradeep",
            "active_ind": 1
        }
    },
    {
        "pk": 3017327,
        "model": "csmrequests.prsnl",
        "fields": {
            "name_full_formatted": "Tech ,Dba",
            "active_ind": 1
        }
    },
    {
        "pk": 3054417,
        "model": "csmrequests.prsnl",
        "fields": {
            "name_full_formatted": "Physician ,Physician",
            "active_ind": 1
        }
    },
    {
        "pk": 3123924,
        "model": "csmrequests.prsnl",
        "fields": {
            "name_full_formatted": "Shropshire ,Justin",
            "active_ind": 1
        }
    },
    {
        "pk": 3531931,
        "model": "csmrequests.prsnl",
        "fields": {
            "name_full_formatted": "Mr.,Hlavaty",
            "active_ind": 1
        }
    }

]